submissions/lab/LAB06/nsa325_nishant_aswani_lab06/code/top-level.vcd
$date
	Fri Oct  4 14:53:01 2019
$end
$version
	Icarus Verilog
$end
$timescale
	1s
$end
$scope module top_level_tb $end
$var reg 1 ! clk $end
$var reg 1 " rst $end
$scope module tl $end
$var wire 32 # ALUin1 [31:0] $end
$var wire 1 $ Branch $end
$var wire 1 % RegWrite_EX_MEM $end
$var wire 1 & RegWrite_MEM_WB $end
$var wire 1 ' clear $end
$var wire 1 ! clk $end
$var wire 32 ( datmem [31:0] $end
$var wire 1 ) hold $end
$var wire 1 " rst $end
$var wire 32 * t0 [31:0] $end
$var wire 32 + t1 [31:0] $end
$var wire 32 , t2 [31:0] $end
$var wire 32 - jumpAddress [31:0] $end
$var wire 32 . SextOut_ID_EX [31:0] $end
$var wire 32 / SextOut [31:0] $end
$var wire 28 0 SLLJOut [27:0] $end
$var wire 32 1 SLLBOut [31:0] $end
$var wire 1 2 RegWrite_ID_EX $end
$var wire 1 3 RegWrite $end
$var wire 1 4 RegDst_ID_EX $end
$var wire 1 5 RegDst $end
$var wire 32 6 RFout2_ID_EX [31:0] $end
$var wire 32 7 RFout2_EX_MEM [31:0] $end
$var wire 32 8 RFout2 [31:0] $end
$var wire 32 9 RFout1_ID_EX [31:0] $end
$var wire 32 : RFout1 [31:0] $end
$var wire 5 ; RFWriteReg_MEM_WB [4:0] $end
$var wire 5 < RFWriteReg_EX_MEM [4:0] $end
$var wire 5 = RFWriteReg [4:0] $end
$var wire 32 > RFWriteData [31:0] $end
$var wire 32 ? PCout [31:0] $end
$var wire 32 @ PCnext_IF_ID [31:0] $end
$var wire 32 A PCnext_ID_EX [31:0] $end
$var wire 32 B PCnext_EX_MEM [31:0] $end
$var wire 32 C PCnext [31:0] $end
$var wire 32 D PCbranch_EX_MEM [31:0] $end
$var wire 32 E PCbranch [31:0] $end
$var wire 32 F PCJumpMUXout [31:0] $end
$var wire 32 G PCBranchMUXout [31:0] $end
$var wire 1 H MemtoReg_ID_EX $end
$var wire 1 I MemtoReg $end
$var wire 1 J MemWrite_ID_EX $end
$var wire 1 K MemWrite_EX_MEM $end
$var wire 1 L MemWrite $end
$var wire 1 M MemRead_ID_EX $end
$var wire 1 N MemRead_EX_MEM $end
$var wire 1 O MemRead $end
$var wire 1 P Jump $end
$var wire 32 Q IMout_IF_ID [31:0] $end
$var wire 32 R IMout [31:0] $end
$var wire 5 S IMSelTwo_ID_EX [4:0] $end
$var wire 5 T IMSelOne_ID_EX [4:0] $end
$var wire 32 U DMout_MEM_WB [31:0] $end
$var wire 32 V DMout [31:0] $end
$var wire 1 W BranchCtrl_ID_EX $end
$var wire 1 X BranchCtrl_EX_MEM $end
$var wire 1 Y BranchCtrl $end
$var wire 1 Z ALUzero_EX_MEM $end
$var wire 1 [ ALUzero $end
$var wire 32 \ ALUout_MEM_WB [31:0] $end
$var wire 32 ] ALUout_EX_MEM [31:0] $end
$var wire 32 ^ ALUout [31:0] $end
$var wire 32 _ ALUin2 [31:0] $end
$var wire 1 ` ALUSrc_ID_EX $end
$var wire 1 a ALUSrc $end
$var wire 2 b ALUOp_ID_EX [1:0] $end
$var wire 2 c ALUOp [1:0] $end
$var wire 3 d ALUControl [2:0] $end
$var reg 32 e PCin [31:0] $end
$scope module alu $end
$var wire 1 ! clk $end
$var wire 32 f inA [31:0] $end
$var wire 1 [ zero $end
$var wire 32 g inB [31:0] $end
$var wire 3 h funct [2:0] $end
$var reg 32 i out [31:0] $end
$upscope $end
$scope module aluctrl $end
$var wire 6 j funct [5:0] $end
$var wire 2 k ALUOp [1:0] $end
$var reg 3 l ALUControl [2:0] $end
$var reg 6 m _funcOverride [5:0] $end
$upscope $end
$scope module alumux $end
$var wire 1 a select $end
$var wire 32 n out [31:0] $end
$var wire 32 o inB [31:0] $end
$var wire 32 p inA [31:0] $end
$upscope $end
$scope module ctrl $end
$var wire 6 q opcode [5:0] $end
$var reg 2 r ALUOp [1:0] $end
$var reg 1 a ALUSrc $end
$var reg 1 Y Branch $end
$var reg 1 P Jump $end
$var reg 1 O MemRead $end
$var reg 1 L MemWrite $end
$var reg 1 I MemtoReg $end
$var reg 1 5 RegDst $end
$var reg 1 3 RegWrite $end
$upscope $end
$scope module dm $end
$var wire 1 ! clk $end
$var wire 32 s writeData [31:0] $end
$var wire 32 t readData [31:0] $end
$var wire 1 K memWrite $end
$var wire 1 N memRead $end
$var wire 32 u address [31:0] $end
$upscope $end
$scope module im $end
$var wire 1 ! clk $end
$var wire 32 v readAddress [31:0] $end
$var reg 32 w instruction [31:0] $end
$upscope $end
$scope module immux $end
$var wire 1 4 select $end
$var wire 5 x out [4:0] $end
$var wire 5 y inB [4:0] $end
$var wire 5 z inA [4:0] $end
$upscope $end
$scope module pc $end
$var wire 1 ! clk $end
$var wire 1 " rst $end
$var wire 32 { in [31:0] $end
$var reg 32 | out [31:0] $end
$upscope $end
$scope module pcbmux $end
$var wire 32 } inB [31:0] $end
$var wire 1 $ select $end
$var wire 32 ~ out [31:0] $end
$var wire 32 !" inA [31:0] $end
$upscope $end
$scope module pcjmux $end
$var wire 32 "" inA [31:0] $end
$var wire 32 #" inB [31:0] $end
$var wire 1 P select $end
$var wire 32 $" out [31:0] $end
$upscope $end
$scope module rf $end
$var wire 1 ! clk $end
$var wire 5 %" readRegisterOne [4:0] $end
$var wire 5 &" readRegisterTwo [4:0] $end
$var wire 1 " rst $end
$var wire 1 & writeEnable $end
$var wire 5 '" writeRegister [4:0] $end
$var wire 32 (" writeData [31:0] $end
$var reg 32 )" readDataOne [31:0] $end
$var reg 32 *" readDataTwo [31:0] $end
$var integer 32 +" i [31:0] $end
$upscope $end
$scope module rfmux $end
$var wire 32 ," inA [31:0] $end
$var wire 32 -" inB [31:0] $end
$var wire 1 I select $end
$var wire 32 ." out [31:0] $end
$upscope $end
$scope module s1_im_pr $end
$var wire 1 ' clear $end
$var wire 1 ! clk $end
$var wire 1 ) hold $end
$var wire 32 /" in [31:0] $end
$var wire 1 " rst $end
$var reg 32 0" out [31:0] $end
$upscope $end
$scope module s1_pcnext_pr $end
$var wire 1 ' clear $end
$var wire 1 ! clk $end
$var wire 1 ) hold $end
$var wire 32 1" in [31:0] $end
$var wire 1 " rst $end
$var reg 32 2" out [31:0] $end
$upscope $end
$scope module s2_aluop_pr $end
$var wire 1 ' clear $end
$var wire 1 ! clk $end
$var wire 1 ) hold $end
$var wire 2 3" in [1:0] $end
$var wire 1 " rst $end
$var reg 2 4" out [1:0] $end
$upscope $end
$scope module s2_alusrc_pr $end
$var wire 1 ' clear $end
$var wire 1 ! clk $end
$var wire 1 ) hold $end
$var wire 1 a in $end
$var wire 1 " rst $end
$var reg 1 ` out $end
$upscope $end
$scope module s2_branchctrl_pr $end
$var wire 1 ' clear $end
$var wire 1 ! clk $end
$var wire 1 ) hold $end
$var wire 1 Y in $end
$var wire 1 " rst $end
$var reg 1 W out $end
$upscope $end
$scope module s2_imselone_pr $end
$var wire 1 ' clear $end
$var wire 1 ! clk $end
$var wire 1 ) hold $end
$var wire 5 5" in [4:0] $end
$var wire 1 " rst $end
$var reg 5 6" out [4:0] $end
$upscope $end
$scope module s2_imseltwo_pr $end
$var wire 1 ' clear $end
$var wire 1 ! clk $end
$var wire 1 ) hold $end
$var wire 5 7" in [4:0] $end
$var wire 1 " rst $end
$var reg 5 8" out [4:0] $end
$upscope $end
$scope module s2_memread_pr $end
$var wire 1 ' clear $end
$var wire 1 ! clk $end
$var wire 1 ) hold $end
$var wire 1 O in $end
$var wire 1 " rst $end
$var reg 1 M out $end
$upscope $end
$scope module s2_memtoreg_pr $end
$var wire 1 ' clear $end
$var wire 1 ! clk $end
$var wire 1 ) hold $end
$var wire 1 I in $end
$var wire 1 " rst $end
$var reg 1 H out $end
$upscope $end
$scope module s2_memwrite_pr $end
$var wire 1 ' clear $end
$var wire 1 ! clk $end
$var wire 1 ) hold $end
$var wire 1 L in $end
$var wire 1 " rst $end
$var reg 1 J out $end
$upscope $end
$scope module s2_pcnext_pr $end
$var wire 1 ' clear $end
$var wire 1 ! clk $end
$var wire 1 ) hold $end
$var wire 32 9" in [31:0] $end
$var wire 1 " rst $end
$var reg 32 :" out [31:0] $end
$upscope $end
$scope module s2_regdst_pr $end
$var wire 1 ' clear $end
$var wire 1 ! clk $end
$var wire 1 ) hold $end
$var wire 1 5 in $end
$var wire 1 " rst $end
$var reg 1 4 out $end
$upscope $end
$scope module s2_regwrite_pr $end
$var wire 1 ' clear $end
$var wire 1 ! clk $end
$var wire 1 ) hold $end
$var wire 1 3 in $end
$var wire 1 " rst $end
$var reg 1 2 out $end
$upscope $end
$scope module s2_rfone_pr $end
$var wire 1 ' clear $end
$var wire 1 ! clk $end
$var wire 1 ) hold $end
$var wire 32 ;" in [31:0] $end
$var wire 1 " rst $end
$var reg 32 <" out [31:0] $end
$upscope $end
$scope module s2_rftwo_pr $end
$var wire 1 ' clear $end
$var wire 1 ! clk $end
$var wire 1 ) hold $end
$var wire 32 =" in [31:0] $end
$var wire 1 " rst $end
$var reg 32 >" out [31:0] $end
$upscope $end
$scope module s2_sext_pr $end
$var wire 1 ' clear $end
$var wire 1 ! clk $end
$var wire 1 ) hold $end
$var wire 1 " rst $end
$var wire 32 ?" in [31:0] $end
$var reg 32 @" out [31:0] $end
$upscope $end
$scope module s3_aluout_pr $end
$var wire 1 ' clear $end
$var wire 1 ! clk $end
$var wire 1 ) hold $end
$var wire 32 A" in [31:0] $end
$var wire 1 " rst $end
$var reg 32 B" out [31:0] $end
$upscope $end
$scope module s3_aluzero_pr $end
$var wire 1 ' clear $end
$var wire 1 ! clk $end
$var wire 1 ) hold $end
$var wire 1 [ in $end
$var wire 1 " rst $end
$var reg 1 Z out $end
$upscope $end
$scope module s3_branchctrl_pr $end
$var wire 1 ' clear $end
$var wire 1 ! clk $end
$var wire 1 ) hold $end
$var wire 1 W in $end
$var wire 1 " rst $end
$var reg 1 X out $end
$upscope $end
$scope module s3_memread_pr $end
$var wire 1 ' clear $end
$var wire 1 ! clk $end
$var wire 1 ) hold $end
$var wire 1 M in $end
$var wire 1 " rst $end
$var reg 1 N out $end
$upscope $end
$scope module s3_memtoreg_pr $end
$var wire 1 ' clear $end
$var wire 1 ! clk $end
$var wire 1 ) hold $end
$var wire 1 2 in $end
$var wire 1 " rst $end
$var reg 1 C" out $end
$upscope $end
$scope module s3_memwrite_pr $end
$var wire 1 ' clear $end
$var wire 1 ! clk $end
$var wire 1 ) hold $end
$var wire 1 J in $end
$var wire 1 " rst $end
$var reg 1 K out $end
$upscope $end
$scope module s3_pcbranch_pr $end
$var wire 1 ' clear $end
$var wire 1 ! clk $end
$var wire 1 ) hold $end
$var wire 32 D" in [31:0] $end
$var wire 1 " rst $end
$var reg 32 E" out [31:0] $end
$upscope $end
$scope module s3_pcnext_pr $end
$var wire 1 ' clear $end
$var wire 1 ! clk $end
$var wire 1 ) hold $end
$var wire 32 F" in [31:0] $end
$var wire 1 " rst $end
$var reg 32 G" out [31:0] $end
$upscope $end
$scope module s3_regwrite_pr $end
$var wire 1 ' clear $end
$var wire 1 ! clk $end
$var wire 1 ) hold $end
$var wire 1 2 in $end
$var wire 1 " rst $end
$var reg 1 H" out $end
$upscope $end
$scope module s3_rftwo_pr $end
$var wire 1 ' clear $end
$var wire 1 ! clk $end
$var wire 1 ) hold $end
$var wire 32 I" in [31:0] $end
$var wire 1 " rst $end
$var reg 32 J" out [31:0] $end
$upscope $end
$scope module s3_rfwritereg_pr $end
$var wire 1 ' clear $end
$var wire 1 ! clk $end
$var wire 1 ) hold $end
$var wire 5 K" in [4:0] $end
$var wire 1 " rst $end
$var reg 5 L" out [4:0] $end
$upscope $end
$scope module s4_aluout_pr $end
$var wire 1 ' clear $end
$var wire 1 ! clk $end
$var wire 1 ) hold $end
$var wire 32 M" in [31:0] $end
$var wire 1 " rst $end
$var reg 32 N" out [31:0] $end
$upscope $end
$scope module s4_dmout_pr $end
$var wire 1 ' clear $end
$var wire 1 ! clk $end
$var wire 1 ) hold $end
$var wire 32 O" in [31:0] $end
$var wire 1 " rst $end
$var reg 32 P" out [31:0] $end
$upscope $end
$scope module s4_memtoreg_pr $end
$var wire 1 ' clear $end
$var wire 1 ! clk $end
$var wire 1 ) hold $end
$var wire 1 % in $end
$var wire 1 " rst $end
$var reg 1 Q" out $end
$upscope $end
$scope module s4_regwrite_pr $end
$var wire 1 ' clear $end
$var wire 1 ! clk $end
$var wire 1 ) hold $end
$var wire 1 % in $end
$var wire 1 " rst $end
$var reg 1 R" out $end
$upscope $end
$scope module s4_rfwritereg_pr $end
$var wire 1 ' clear $end
$var wire 1 ! clk $end
$var wire 1 ) hold $end
$var wire 5 S" in [4:0] $end
$var wire 1 " rst $end
$var reg 5 T" out [4:0] $end
$upscope $end
$scope module sext $end
$var wire 16 U" in [15:0] $end
$var reg 32 V" out [31:0] $end
$upscope $end
$scope module sllb $end
$var wire 1 ! clk $end
$var wire 32 W" in [31:0] $end
$var reg 32 X" out [31:0] $end
$upscope $end
$upscope $end
$upscope $end
$enddefinitions $end
#0
$dumpvars
bx X"
bx W"
bx V"
bx U"
bx T"
bx S"
xR"
xQ"
bx P"
bx O"
bx N"
bx M"
bx L"
bx K"
bx J"
bx I"
xH"
bx G"
bx F"
bx E"
bx D"
xC"
bx B"
bx A"
bx @"
bx ?"
bx >"
bx ="
bx <"
bx ;"
bx :"
bx 9"
bx 8"
bx 7"
bx 6"
bx 5"
bx 4"
bx 3"
bx 2"
bx 1"
bx 0"
bx /"
bx ."
bx -"
bx ,"
b11111 +"
bx *"
bx )"
bx ("
bx '"
bx &"
bx %"
bx $"
b0xxxxxxxxxxxxxxxxxxxxxxxxxx00 #"
bx ""
bx !"
bx ~
bx }
bx |
bx {
bx z
bx y
bx x
bx w
bx v
bx u
bx t
bx s
bx r
bx q
bx p
bx o
bx n
bx m
bx l
bx k
bx j
bx i
bx h
bx g
bx f
b0 e
bx d
bx c
bx b
xa
x`
bx _
bx ^
bx ]
bx \
x[
xZ
xY
xX
xW
bx V
bx U
bx T
bx S
bx R
bx Q
xP
xO
xN
xM
xL
xK
xJ
xI
xH
bx G
bx F
bx E
bx D
bx C
bx B
bx A
bx @
bx ?
bx >
bx =
bx <
bx ;
bx :
bx 9
bx 8
bx 7
bx 6
x5
x4
x3
x2
bx 1
bx00 0
bx /
bx .
b0xxxxxxxxxxxxxxxxxxxxxxxxxx00 -
b0 ,
b0 +
b0 *
z)
b10111010101010101010101010101101 (
z'
x&
x%
x$
bx #
1"
0!
$end
#1
1[
b0 >
b0 ("
b0 ."
b0 ^
b0 i
b0 ,"
b0 A"
b0 -
b0 #"
b0 0
b0 /
b0 ?"
b0 V"
b10 c
b10 r
b10 3"
0P
0Y
0L
0O
13
0I
0a
15
b101111 m
b10 d
b10 h
b10 l
b0 E
b0 }
b0 D"
b0 1
b0 X"
b0 R
b0 w
b0 /"
b0 F
b0 {
b0 $"
b0 8
b0 *"
b0 ="
b0 :
b0 )"
b0 ;"
b0 G
b0 ~
b0 ""
b0 U"
b0 &"
b0 %"
b0 q
b0 7"
b0 5"
b0 _
b0 g
b0 n
b0 j
b0 =
b0 x
b0 K"
b0 V
b0 t
b0 -"
b0 O"
0$
b0 Q
b0 0"
b0 @
b0 2"
b0 9"
0`
b0 b
b0 k
b0 4"
04
0W
0M
0J
02
0H
b0 #
b0 f
b0 9
b0 <"
b0 6
b0 p
b0 >"
b0 I"
b0 .
b0 o
b0 @"
b0 W"
b0 T
b0 z
b0 6"
b0 S
b0 y
b0 8"
b0 A
b0 :"
b0 F"
0X
0N
0K
0%
0H"
0C"
b0 D
b0 E"
0Z
b0 ]
b0 u
b0 B"
b0 M"
b0 7
b0 s
b0 J"
b0 <
b0 L"
b0 S"
b0 B
b0 !"
b0 G"
0&
0R"
0Q"
b0 U
b0 P"
b0 \
b0 N"
b0 ;
b0 '"
b0 T"
b100 C
b100 1"
b0 ?
b0 v
b0 |
b11111 +"
1!
#2
b100 e
0!
0"
#3
b111 d
b111 h
b111 l
1Z
12
14
b10 b
b10 k
b10 4"
b100 @
b100 2"
b100 9"
1!
#4
0!
#5
b100 E
b100 }
b100 D"
b100 A
b100 :"
b100 F"
1H"
1%
1C"
1!
#6
0!
#7
b100 F
b100 {
b100 $"
b100 G
b100 ~
b100 ""
1Q"
1&
1R"
b100 B
b100 !"
b100 G"
b100 D
b100 E"
1!
#8
0!
#9
b100001000000000000000001000 -
b100001000000000000000001000 #"
b100001000000000000000001000 0
b1000 e
b100001000010000000000000000010 R
b100001000010000000000000000010 w
b100001000010000000000000000010 /"
b1000 C
b1000 1"
b100 ?
b100 v
b100 |
1!
#10
0!
#11
b10 /
b10 ?"
b10 V"
b11 c
b11 r
b11 3"
1a
05
b10 U"
b1000 &"
b1000 %"
b1000 q
b1000 5"
b1000 @
b1000 2"
b1000 9"
b100001000010000000000000000010 Q
b100001000010000000000000000010 0"
1!
#12
0!
#13
0[
b10 >
b10 ("
b10 ."
b10 ^
b10 i
b10 ,"
b10 A"
b10 d
b10 h
b10 l
b1000 1
b1000 X"
b1000 =
b1000 x
b1000 K"
b10 _
b10 g
b10 n
b10 j
1`
b11 b
b11 k
b11 4"
04
b10 .
b10 o
b10 @"
b10 W"
b1000 T
b1000 z
b1000 6"
b10000 E
b10000 }
b10000 D"
b1000 A
b1000 :"
b1000 F"
1!
#14
0!
#15
b1000 F
b1000 {
b1000 $"
b1000 G
b1000 ~
b1000 ""
b1000 B
b1000 !"
b1000 G"
b1000 <
b1000 L"
b1000 S"
b10 ]
b10 u
b10 B"
b10 M"
0Z
b10000 D
b10000 E"
1!
#16
0!
#17
b101001010000000000000001000 -
b101001010000000000000001000 #"
b101001010000000000000001000 0
b1100 e
b100001010010100000000000000010 R
b100001010010100000000000000010 w
b100001010010100000000000000010 /"
b10 \
b10 N"
b1000 ;
b1000 '"
b1000 T"
b1100 C
b1100 1"
b1000 ?
b1000 v
b1000 |
1!
#18
0!
#19
b1010 &"
b1010 %"
b1010 5"
b10 *
b1100 @
b1100 2"
b1100 9"
b100001010010100000000000000010 Q
b100001010010100000000000000010 0"
1!
#20
0!
#21
b1010 =
b1010 x
b1010 K"
b1010 T
b1010 z
b1010 6"
b10100 E
b10100 }
b10100 D"
b1100 A
b1100 :"
b1100 F"
1!
#22
0!
#23
b1100 F
b1100 {
b1100 $"
b1100 G
b1100 ~
b1100 ""
b1100 B
b1100 !"
b1100 G"
b1010 <
b1010 L"
b1010 S"
b10100 D
b10100 E"
1!
#24
0!
#25
b100001010010000000010000000 -
b100001010010000000010000000 #"
b100001010010000000010000000 0
b10000 e
b1000010100100000000100000 R
b1000010100100000000100000 w
b1000010100100000000100000 /"
b1010 ;
b1010 '"
b1010 T"
b10000 C
b10000 1"
b1100 ?
b1100 v
b1100 |
1!
#26
0!
#27
1[
b0 >
b0 ("
b0 ."
b0 ^
b0 i
b0 ,"
b0 A"
b0 _
b0 g
b0 n
b100000000100000 /
b100000000100000 ?"
b100000000100000 V"
b10 c
b10 r
b10 3"
0a
15
b10 8
b10 *"
b10 ="
b10 :
b10 )"
b10 ;"
b100000000100000 U"
b1000 %"
b0 q
b1000 7"
b10 ,
b10000 @
b10000 2"
b10000 9"
b1000010100100000000100000 Q
b1000010100100000000100000 0"
1!
#28
0!
#29
0[
b100 >
b100 ("
b100 ."
b1010 m
b10 d
b10 h
b10 l
b100 ^
b100 i
b100 ,"
b100 A"
b10000000010000000 1
b10000000010000000 X"
b1000 =
b1000 x
b1000 K"
b10 _
b10 g
b10 n
b100000 j
b0 8
b0 *"
b0 ="
0`
b10 b
b10 k
b10 4"
14
b10 #
b10 f
b10 9
b10 <"
b10 6
b10 p
b10 >"
b10 I"
b100000000100000 .
b100000000100000 o
b100000000100000 @"
b100000000100000 W"
b1000 S
b1000 y
b1000 8"
b10000000010010000 E
b10000000010010000 }
b10000000010010000 D"
b10000 A
b10000 :"
b10000 F"
1Z
b0 ]
b0 u
b0 B"
b0 M"
b0 ,
1!
#30
0!
#31
b10 >
b10 ("
b10 ."
b10 ^
b10 i
b10 ,"
b10 A"
b10000 F
b10000 {
b10000 $"
b100 8
b100 *"
b100 ="
b10000 G
b10000 ~
b10000 ""
b0 _
b0 g
b0 n
b100 ,
b0 \
b0 N"
b10000 B
b10000 !"
b10000 G"
b1000 <
b1000 L"
b1000 S"
b10 7
b10 s
b10 J"
b100 ]
b100 u
b100 B"
b100 M"
0Z
b10000000010010000 D
b10000000010010000 E"
b0 6
b0 p
b0 >"
b0 I"
1!
#32
0!
#33
b110 >
b110 ("
b110 ."
b100101001000000000000000100 -
b100101001000000000000000100 #"
b100101001000000000000000100 0
b110 ^
b110 i
b110 ,"
b110 A"
b10100 e
b100001001010010000000000000001 R
b100001001010010000000000000001 w
b100001001010010000000000000001 /"
b100 _
b100 g
b100 n
b10 8
b10 *"
b10 ="
b100 6
b100 p
b100 >"
b100 I"
b10 ]
b10 u
b10 B"
b10 M"
b0 7
b0 s
b0 J"
b100 \
b100 N"
b1000 ;
b1000 '"
b1000 T"
b10100 C
b10100 1"
b10000 ?
b10000 v
b10000 |
b10 ,
1!
#34
0!
#35
b100000000100010 >
b100000000100010 ("
b100000000100010 ."
b100000000100010 ^
b100000000100010 i
b100000000100010 ,"
b100000000100010 A"
b1 /
b1 ?"
b1 V"
b11 c
b11 r
b11 3"
1a
05
b0 8
b0 *"
b0 ="
b0 :
b0 )"
b0 ;"
b100000000100000 _
b100000000100000 g
b100000000100000 n
b1 U"
b1001 &"
b1001 %"
b1000 q
b0 7"
b1001 5"
b110 *
b10 \
b10 N"
b100 7
b100 s
b100 J"
b110 ]
b110 u
b110 B"
b110 M"
b10 6
b10 p
b10 >"
b10 I"
b10100 @
b10100 2"
b10100 9"
b100001001010010000000000000001 Q
b100001001010010000000000000001 0"
1!
#36
0!
#37
b1 >
b1 ("
b1 ."
b101111 m
b1 ^
b1 i
b1 ,"
b1 A"
b100 1
b100 X"
b1 _
b1 g
b1 n
b1 j
b1001 =
b1001 x
b1001 K"
1`
b11 b
b11 k
b11 4"
04
b0 #
b0 f
b0 9
b0 <"
b0 6
b0 p
b0 >"
b0 I"
b1 .
b1 o
b1 @"
b1 W"
b1001 T
b1001 z
b1001 6"
b0 S
b0 y
b0 8"
b11000 E
b11000 }
b11000 D"
b10100 A
b10100 :"
b10100 F"
b100000000100010 ]
b100000000100010 u
b100000000100010 B"
b100000000100010 M"
b10 7
b10 s
b10 J"
b110 \
b110 N"
b100000000100010 *
1!
#38
0!
#39
b10100 F
b10100 {
b10100 $"
b10100 G
b10100 ~
b10100 ""
b1 *
b100000000100010 \
b100000000100010 N"
b10100 B
b10100 !"
b10100 G"
b1001 <
b1001 L"
b1001 S"
b0 7
b0 s
b0 J"
b1 ]
b1 u
b1 B"
b1 M"
b11000 D
b11000 E"
1!
#40
0!
#41
b100101000000000000000000000 -
b100101000000000000000000000 #"
b100101000000000000000000000 0
b11000 e
b10101101001010000000000000000000 R
b10101101001010000000000000000000 w
b10101101001010000000000000000000 /"
b1 \
b1 N"
b1001 ;
b1001 '"
b1001 T"
b11000 C
b11000 1"
b10100 ?
b10100 v
b10100 |
1!
#42
0!
#43
b0 /
b0 ?"
b0 V"
b0 c
b0 r
b0 3"
1L
03
b1 8
b1 *"
b1 ="
b1 :
b1 )"
b1 ;"
b0 U"
b1000 &"
b101011 q
b1000 5"
b1 +
b11000 @
b11000 2"
b11000 9"
b10101101001010000000000000000000 Q
b10101101001010000000000000000000 0"
1!
#44
0!
#45
b0 1
b0 X"
b0 _
b0 g
b0 n
b0 j
b1000 =
b1000 x
b1000 K"
b0 b
b0 k
b0 4"
1J
02
b1 #
b1 f
b1 9
b1 <"
b1 6
b1 p
b1 >"
b1 I"
b0 .
b0 o
b0 @"
b0 W"
b1000 T
b1000 z
b1000 6"
b11000 E
b11000 }
b11000 D"
b11000 A
b11000 :"
b11000 F"
1!
#46
0!
#47
b11000 F
b11000 {
b11000 $"
b11000 G
b11000 ~
b11000 ""
b11000 B
b11000 !"
b11000 G"
b1000 <
b1000 L"
b1000 S"
b1 7
b1 s
b1 J"
0C"
0%
0H"
1K
1!
#48
0!
#49
b100101010000000000000000000 -
b100101010000000000000000000 #"
b100101010000000000000000000 0
b11100 e
b10001101001010100000000000000000 R
b10001101001010100000000000000000 w
b10001101001010100000000000000000 /"
0R"
0&
0Q"
b1000 ;
b1000 '"
b1000 T"
b11100 C
b11100 1"
b11000 ?
b11000 v
b11000 |
b1 (
1!
#50
0!
#51
b0 >
b0 ("
b0 ."
0L
1O
13
1I
b10 8
b10 *"
b10 ="
b1010 &"
b100011 q
b1010 5"
b11100 @
b11100 2"
b11100 9"
b10001101001010100000000000000000 Q
b10001101001010100000000000000000 0"
1!
#52
0!
#53
b1010 =
b1010 x
b1010 K"
1M
0J
12
1H
b10 6
b10 p
b10 >"
b10 I"
b1010 T
b1010 z
b1010 6"
b11100 E
b11100 }
b11100 D"
b11100 A
b11100 :"
b11100 F"
1!
#54
0!
#55
b11100 F
b11100 {
b11100 $"
b1 >
b1 ("
b1 ."
b11100 G
b11100 ~
b11100 ""
b1 V
b1 t
b1 -"
b1 O"
b11100 B
b11100 !"
b11100 G"
b1010 <
b1010 L"
b1010 S"
b10 7
b10 s
b10 J"
b11100 D
b11100 E"
1C"
1%
1H"
0K
1N
1!
#56
0!
#57
b100001001010000000010001000 -
b100001001010000000010001000 #"
b100001001010000000010001000 0
b100000 e
b1000010010100000000100010 R
b1000010010100000000100010 w
b1000010010100000000100010 /"
1R"
1&
1Q"
b1 U
b1 P"
b1010 ;
b1010 '"
b1010 T"
b100000 C
b100000 1"
b11100 ?
b11100 v
b11100 |
1!
#58
0!
#59
b11 >
b11 ("
b11 ."
b11 ^
b11 i
b11 ,"
b11 A"
b10 _
b10 g
b10 n
b100000000100010 /
b100000000100010 ?"
b100000000100010 V"
b10 c
b10 r
b10 3"
0O
0I
0a
15
b1 8
b1 *"
b1 ="
b100000000100010 U"
b1001 &"
b1000 %"
b0 q
b1000 7"
b1001 5"
b1 ,
b100000 @
b100000 2"
b100000 9"
b1000010010100000000100010 Q
b1000010010100000000100010 0"
1!
#60
0!
#61
1[
b0 >
b0 ("
b0 ."
b0 ^
b0 i
b0 ,"
b0 A"
b101110 m
b110 d
b110 h
b110 l
b10000000010001000 1
b10000000010001000 X"
b11001010111111101101000000001101 V
b11001010111111101101000000001101 t
b11001010111111101101000000001101 -"
b11001010111111101101000000001101 O"
b1 _
b1 g
b1 n
b100010 j
b1000 =
b1000 x
b1000 K"
0`
b10 b
b10 k
b10 4"
14
0M
0H
b1 6
b1 p
b1 >"
b1 I"
b100000000100010 .
b100000000100010 o
b100000000100010 @"
b100000000100010 W"
b1001 T
b1001 z
b1001 6"
b1000 S
b1000 y
b1000 8"
b10000000010101000 E
b10000000010101000 }
b10000000010101000 D"
b100000 A
b100000 :"
b100000 F"
b11 ]
b11 u
b11 B"
b11 M"
b11 ,
1!
#62
0!
#63
b100000 F
b100000 {
b100000 $"
b100000 G
b100000 ~
b100000 ""
b0 V
b0 t
b0 -"
b0 O"
b0 ,
b11 \
b11 N"
b11001010111111101101000000001101 U
b11001010111111101101000000001101 P"
b100000 B
b100000 !"
b100000 G"
b1000 <
b1000 L"
b1000 S"
b1 7
b1 s
b1 J"
b0 ]
b0 u
b0 B"
b0 M"
1Z
b10000000010101000 D
b10000000010101000 E"
0N
1!
#64
0!
#65
b100001001000000000000000100 -
b100001001000000000000000100 #"
b100001001000000000000000100 0
b100100 e
b10001000010010000000000000001 R
b10001000010010000000000000001 w
b10001000010010000000000000001 /"
b0 U
b0 P"
b0 \
b0 N"
b1000 ;
b1000 '"
b1000 T"
b100100 C
b100100 1"
b100000 ?
b100000 v
b100000 |
1!
#66
0!
#67
b1 /
b1 ?"
b1 V"
b1 c
b1 r
b1 3"
1Y
03
05
b0 :
b0 )"
b0 ;"
b1 U"
b100 q
b0 7"
b0 *
b100100 @
b100100 2"
b100100 9"
b10001000010010000000000000001 Q
b10001000010010000000000000001 0"
1!
#68
0!
#69
0[
b11111111111111111111111111111111 >
b11111111111111111111111111111111 ("
b11111111111111111111111111111111 ."
b101111 m
b11111111111111111111111111111111 ^
b11111111111111111111111111111111 i
b11111111111111111111111111111111 ,"
b11111111111111111111111111111111 A"
b100 1
b100 X"
b1 j
b1001 =
b1001 x
b1001 K"
b1 b
b1 k
b1 4"
04
1W
02
b0 #
b0 f
b0 9
b0 <"
b1 .
b1 o
b1 @"
b1 W"
b0 S
b0 y
b0 8"
b101000 E
b101000 }
b101000 D"
b100100 A
b100100 :"
b100100 F"
1!
#70
0!
#71
b100100 F
b100100 {
b100100 $"
b11111111111111111111111111111111 :
b11111111111111111111111111111111 )"
b11111111111111111111111111111111 ;"
b100100 G
b100100 ~
b100100 ""
b11111111111111111111111111111111 *
b100100 B
b100100 !"
b100100 G"
b1001 <
b1001 L"
b1001 S"
b11111111111111111111111111111111 ]
b11111111111111111111111111111111 u
b11111111111111111111111111111111 B"
b11111111111111111111111111111111 M"
0Z
b101000 D
b101000 E"
0C"
0%
0H"
1X
1!
#72
0!
